-------------------------------------------------------------------------------
Test set: com.zopa.loanmachine.offer.LoanOfferTest
-------------------------------------------------------------------------------
Tests run: 8, Failures: 0, Errors: 0, Skipped: 0, Time elapsed: 0.001 sec - in com.zopa.loanmachine.offer.LoanOfferTest
